module tezoscommons.org/dmeta/tezosdomains

go 1.20

require (
	github.com/fogleman/gg v1.3.0 // indirect
	github.com/golang/freetype v0.0.0-20170609003504-e2365dfdc4a0 // indirect
	golang.org/x/image v0.13.0 // indirect
)
